<?xml version="1.0" encoding="UTF-8" standalone="no"?>
<svg
   xmlns:dc="http://purl.org/dc/elements/1.1/"
   xmlns:cc="http://creativecommons.org/ns#"
   xmlns:rdf="http://www.w3.org/1999/02/22-rdf-syntax-ns#"
   xmlns:svg="http://www.w3.org/2000/svg"
   xmlns="http://www.w3.org/2000/svg"
   xmlns:sodipodi="http://sodipodi.sourceforge.net/DTD/sodipodi-0.dtd"
   xmlns:inkscape="http://www.inkscape.org/namespaces/inkscape"
   viewBox="0 32 22.9376 24.706592"
   width="128"
   height="128"
   version="1.1"
   id="svg4"
   sodipodi:docname="devto.svg"
   inkscape:version="0.92.4 (unknown)">
  <metadata
     id="metadata10">
    <rdf:RDF>
      <cc:Work
         rdf:about="">
        <dc:format>image/svg+xml</dc:format>
        <dc:type
           rdf:resource="http://purl.org/dc/dcmitype/StillImage" />
        <dc:title></dc:title>
      </cc:Work>
    </rdf:RDF>
  </metadata>
  <defs
     id="defs8" />
  <sodipodi:namedview
     pagecolor="#ffffff"
     bordercolor="#666666"
     borderopacity="1"
     objecttolerance="10"
     gridtolerance="10"
     guidetolerance="10"
     inkscape:pageopacity="0"
     inkscape:pageshadow="2"
     inkscape:window-width="1920"
     inkscape:window-height="1171"
     id="namedview6"
     showgrid="false"
     inkscape:zoom="3.2537699"
     inkscape:cx="-42.676186"
     inkscape:cy="20.441556"
     inkscape:window-x="3840"
     inkscape:window-y="0"
     inkscape:window-maximized="1"
     inkscape:current-layer="svg4" />
  <path
     d="m 5.7399586,41.722151 c -0.2139736,-0.16 -0.4285048,-0.23984 -0.6424808,-0.23984 H 4.1356857 v 5.761368 h 0.9623437 c 0.2139736,0 0.428504,-0.08 0.6424808,-0.23984 0.2139736,-0.16 0.3209664,-0.39984 0.3209664,-0.72024 V 42.442503 C 6.060925,42.122663 5.9533774,41.882183 5.739959,41.722263 Z M 21.40107,31.999999 H 1.5365296 c -1.33459816,0 -2.41771896,1.080352 -2.4210256,2.415512 v 19.875568 c 0.003352,1.33516 1.08642744,2.415512 2.4210256,2.415512 H 21.40107 c 1.33515,0 2.417716,-1.080352 2.421026,-2.415512 V 34.415511 c -0.0033,-1.33516 -1.086429,-2.415512 -2.421026,-2.415512 z M 7.6194253,46.293975 c 0,1.037344 -0.6402776,2.609096 -2.6669899,2.605776 h -2.558897 v -9.124912 h 2.6129435 c 1.9544687,0 2.6118402,1.56956 2.6123918,2.607456 z m 5.5523657,-4.88948 h -2.938322 v 2.118824 h 1.796193 v 1.63072 h -1.796193 v 2.11828 h 2.93887 v 1.630752 H 9.743198 c -0.6154564,0.0152 -1.127238,-0.4704 -1.1426804,-1.085896 v -6.899632 c -0.01496,-0.61488 0.472072,-1.125608 1.0869794,-1.141024 h 3.484842 z m 5.715606,6.358096 c -0.727968,1.695816 -2.032229,1.358296 -2.616254,0 l -2.124876,-7.985528 h 1.796191 l 1.638467,6.271488 1.630744,-6.271488 h 1.796742 z"
     id="path2"
     inkscape:connector-curvature="0"
     style="stroke-width:0.05514864" />
</svg>
