<?xml version="1.0" encoding="UTF-8" standalone="no"?>
<svg
   xmlns:dc="http://purl.org/dc/elements/1.1/"
   xmlns:cc="http://creativecommons.org/ns#"
   xmlns:rdf="http://www.w3.org/1999/02/22-rdf-syntax-ns#"
   xmlns:svg="http://www.w3.org/2000/svg"
   xmlns="http://www.w3.org/2000/svg"
   xmlns:sodipodi="http://sodipodi.sourceforge.net/DTD/sodipodi-0.dtd"
   xmlns:inkscape="http://www.inkscape.org/namespaces/inkscape"
   id="RSSicon"
   viewBox="0 0 4 4"
   width="128"
   height="128"
   version="1.1"
   sodipodi:docname="rss.svg"
   inkscape:version="0.92.4 (unknown)">
  <metadata
     id="metadata19">
    <rdf:RDF>
      <cc:Work
         rdf:about="">
        <dc:format>image/svg+xml</dc:format>
        <dc:type
           rdf:resource="http://purl.org/dc/dcmitype/StillImage" />
        <dc:title>RSS feed icon</dc:title>
      </cc:Work>
    </rdf:RDF>
  </metadata>
  <defs
     id="defs17" />
  <sodipodi:namedview
     pagecolor="#ffffff"
     bordercolor="#666666"
     borderopacity="1"
     objecttolerance="10"
     gridtolerance="10"
     guidetolerance="10"
     inkscape:pageopacity="0"
     inkscape:pageshadow="2"
     inkscape:window-width="1920"
     inkscape:window-height="1171"
     id="namedview15"
     showgrid="false"
     inkscape:zoom="1.84375"
     inkscape:cx="22.238894"
     inkscape:cy="-6.0199495"
     inkscape:window-x="3840"
     inkscape:window-y="0"
     inkscape:window-maximized="1"
     inkscape:current-layer="RSSicon" />
  <title
     id="title2">RSS feed icon</title>
  <style
     type="text/css"
     id="style4">
    .button {stroke: none; fill: orange;}
    .symbol {stroke: none; fill: white;}
  </style>
  <rect
     class="button"
     width="4"
     height="4"
     rx="0.75"
     id="rect6"
     x="0"
     y="0"
     style="fill:#ffa500;stroke:none;stroke-width:0.5" />
  <circle
     class="symbol"
     cx="1"
     cy="3"
     r="0.5"
     id="circle8"
     style="fill:#ffffff;stroke:none;stroke-width:0.5" />
  <path
     class="symbol"
     d="M 0.5,2 A 1.5,1.5 0 0 1 2,3.5 h 0.5 a 2,2 0 0 0 -2,-2 z"
     id="path10"
     inkscape:connector-curvature="0"
     style="fill:#ffffff;stroke:none;stroke-width:0.5" />
  <path
     class="symbol"
     d="M 0.5,1 A 2.5,2.5 0 0 1 3,3.5 h 0.5 a 3,3 0 0 0 -3,-3 z"
     id="path12"
     inkscape:connector-curvature="0"
     style="fill:#ffffff;stroke:none;stroke-width:0.5" />
</svg>
