<?xml version="1.0" encoding="UTF-8" standalone="no"?>
<svg
   xmlns:dc="http://purl.org/dc/elements/1.1/"
   xmlns:cc="http://creativecommons.org/ns#"
   xmlns:rdf="http://www.w3.org/1999/02/22-rdf-syntax-ns#"
   xmlns:svg="http://www.w3.org/2000/svg"
   xmlns="http://www.w3.org/2000/svg"
   xmlns:sodipodi="http://sodipodi.sourceforge.net/DTD/sodipodi-0.dtd"
   xmlns:inkscape="http://www.inkscape.org/namespaces/inkscape"
   viewBox="0 0 128 128"
   version="1.1"
   id="svg22"
   sodipodi:docname="telegram.svg"
   width="128"
   height="128"
   inkscape:version="0.92.4 (unknown)">
  <metadata
     id="metadata26">
    <rdf:RDF>
      <cc:Work
         rdf:about="">
        <dc:format>image/svg+xml</dc:format>
        <dc:type
           rdf:resource="http://purl.org/dc/dcmitype/StillImage" />
        <dc:title></dc:title>
      </cc:Work>
    </rdf:RDF>
  </metadata>
  <sodipodi:namedview
     pagecolor="#ffffff"
     bordercolor="#666666"
     borderopacity="1"
     objecttolerance="10"
     gridtolerance="10"
     guidetolerance="10"
     inkscape:pageopacity="0"
     inkscape:pageshadow="2"
     inkscape:window-width="1920"
     inkscape:window-height="1171"
     id="namedview24"
     showgrid="false"
     inkscape:zoom="2.7812868"
     inkscape:cx="7.4723444"
     inkscape:cy="-1.1385384"
     inkscape:window-x="3840"
     inkscape:window-y="0"
     inkscape:window-maximized="1"
     inkscape:current-layer="svg22" />
  <defs
     id="defs12">
    <linearGradient
       id="a"
       x1="160.08"
       x2="100.08"
       y1="40.079998"
       y2="180"
       gradientUnits="userSpaceOnUse"
       gradientTransform="scale(0.53333336)">
      <stop
         offset="0"
         stop-color="#37aee2"
         id="stop2" />
      <stop
         offset="1"
         stop-color="#1e96c8"
         id="stop4" />
    </linearGradient>
    <linearGradient
       id="b"
       x1="123.67709"
       x2="146.50331"
       y1="131.03925"
       y2="174.66003"
       gradientTransform="scale(0.58235032,0.48844216)"
       gradientUnits="userSpaceOnUse">
      <stop
         offset="0"
         stop-color="#eff7fc"
         id="stop7" />
      <stop
         offset="1"
         stop-color="#fff"
         id="stop9" />
    </linearGradient>
  </defs>
  <circle
     cx="64"
     cy="64"
     r="64"
     id="circle14"
     style="fill:url(#a);stroke-width:0.5333333" />
  <path
     d="m 52.266666,93.33336 c -2.0736,0 -1.721066,-0.7832 -2.436266,-2.75736 L 43.733334,70.5104 90.666664,42.66664"
     id="path16"
     inkscape:connector-curvature="0"
     style="fill:#c8daea;stroke-width:0.5333333" />
  <path
     d="m 52.266666,93.33336 c 1.6,0 2.306668,-0.732 3.2,-1.6 L 64,83.43576 53.355734,77.01704"
     id="path18"
     inkscape:connector-curvature="0"
     style="fill:#a9c9dd;stroke-width:0.5333333" />
  <path
     d="m 53.354666,77.01864 25.792,19.05552 c 2.94347,1.624 5.067198,0.7832 5.800534,-2.73232 L 95.445864,43.86824 C 96.520536,39.55888 93.8032,37.60368 90.9872,38.88216 l -61.648,23.7712 c -4.208,1.688 -4.182934,4.03568 -0.766936,5.0816 L 44.392531,72.67304 81.018136,49.5664 C 82.7472,48.51784 84.3344,49.0808 83.032,50.2376"
     id="path20"
     style="fill:url(#b);stroke-width:0.5333333"
     inkscape:connector-curvature="0" />
</svg>
