<?xml version="1.0" encoding="UTF-8" standalone="no"?>
<svg
   xmlns:dc="http://purl.org/dc/elements/1.1/"
   xmlns:cc="http://creativecommons.org/ns#"
   xmlns:rdf="http://www.w3.org/1999/02/22-rdf-syntax-ns#"
   xmlns:svg="http://www.w3.org/2000/svg"
   xmlns="http://www.w3.org/2000/svg"
   xmlns:sodipodi="http://sodipodi.sourceforge.net/DTD/sodipodi-0.dtd"
   xmlns:inkscape="http://www.inkscape.org/namespaces/inkscape"
   width="128"
   height="128"
   viewBox="0 0 128 128"
   version="1.1"
   id="svg4"
   sodipodi:docname="globe.svg"
   inkscape:version="0.92.4 (unknown)">
  <metadata
     id="metadata10">
    <rdf:RDF>
      <cc:Work
         rdf:about="">
        <dc:format>image/svg+xml</dc:format>
        <dc:type
           rdf:resource="http://purl.org/dc/dcmitype/StillImage" />
        <dc:title></dc:title>
      </cc:Work>
    </rdf:RDF>
  </metadata>
  <defs
     id="defs8" />
  <sodipodi:namedview
     pagecolor="#ffffff"
     bordercolor="#666666"
     borderopacity="1"
     objecttolerance="10"
     gridtolerance="10"
     guidetolerance="10"
     inkscape:pageopacity="0"
     inkscape:pageshadow="2"
     inkscape:window-width="1920"
     inkscape:window-height="1171"
     id="namedview6"
     showgrid="false"
     inkscape:zoom="7.375"
     inkscape:cx="95.025054"
     inkscape:cy="72.31878"
     inkscape:window-x="3840"
     inkscape:window-y="0"
     inkscape:window-maximized="1"
     inkscape:current-layer="svg4" />
  <path
     d="M 64,0 C 28.708571,0 0,28.70856 0,64 c 0,35.29144 28.708571,64 64,64 4.388571,0 8.594286,-0.4568 12.617143,-1.28 -1.554286,-0.7312 -1.828572,-6.67432 -0.182856,-9.96568 1.737143,-3.74864 7.405715,-13.2572 1.828571,-16.4572 -5.577142,-3.2 -4.022856,-4.57144 -7.405713,-8.32 C 67.474286,88.22856 68.845714,87.68 68.571429,86.67432 67.84,83.56568 71.862857,78.53712 72.137143,78.08 c 0.182856,-0.5488 0.182856,-2.46856 0,-3.01712 0,-0.7312 -2.468572,-2.01144 -3.108572,-2.10288 -0.548568,0 -1.005714,1.00568 -1.828571,1.18856 -0.822857,0.1832 -4.571429,-2.28568 -5.394286,-3.01712 -0.822857,-0.7312 -1.28,-2.10288 -2.468571,-3.10856 -1.188572,-1.18856 -1.28,-0.2744 -3.017143,-1.00576 C 54.582857,66.28592 49.005714,64.18288 44.617143,62.62856 40.228571,60.89144 39.862857,58.33144 39.862857,56.59432 39.68,54.76568 37.12,52.29712 36.022857,50.46856 34.742857,48.64 34.56,46.17144 34.194286,46.72 33.828571,47.26856 36.48,53.85144 36.022857,54.12568 35.565714,54.30856 34.56,52.29712 33.28,50.65144 32,48.91432 34.56,49.82856 30.537143,41.96568 c -4.022857,-7.8628 1.28,-11.88568 1.554286,-16 0.274288,-4.11424 3.474285,1.55432 1.737142,-1.18856 -1.737142,-2.7428 0,-8.13712 -1.28,-10.14856 -1.188571,-2.01144 -8.045714,2.28576 -8.045714,2.28576 0.182856,-2.01144 6.308572,-5.30288 10.605714,-8.41144 4.297143,-3.10856 7.131429,-0.5488 10.605715,0.4568 3.565714,1.18856 3.748571,0.82288 2.56,-0.4568 -1.188572,-1.18856 0.548568,-1.55432 3.291428,-1.18856 2.56,0.4568 3.474286,3.74856 7.588572,3.29136 4.297143,-0.2744 0.457144,0.82288 1.005714,2.01144 0.548568,1.18856 -0.548568,1.00576 -3.474286,2.74288 -2.742857,1.82856 0.182856,2.01144 5.028572,5.57712 4.845714,3.56576 3.474285,-2.28568 2.834285,-5.02856 -0.64,-2.74288 3.565715,-0.5488 3.565715,-0.5488 3.017143,2.01144 2.468571,0.1832 4.571428,0.7312 2.102857,0.5488 8.319998,5.85144 8.319998,5.85144 -7.588569,4.0228 -2.834283,4.38856 -1.554283,5.39424 1.280003,1.00576 -2.56,2.74288 -2.56,2.74288 -1.554286,-1.55432 -1.737143,0.1832 -2.742858,0.7312 -1.005714,0.5488 -0.182856,2.01144 -0.182856,2.01144 -5.12,0.8228 -4.022857,6.30856 -3.84,7.58856 0,1.28 -3.474285,3.29144 -4.297143,5.30288 -0.822857,1.82856 2.285714,5.85136 0.548576,6.03424 C 64.64,52.02288 63.268571,45.71432 54.4,48 c -2.742857,0.7312 -8.594286,3.74856 -5.394286,9.87432 3.291429,6.30856 8.411429,-1.7372 10.148572,-0.82288 1.737143,0.91424 -0.548568,4.84568 -0.182856,5.02856 0.365712,0.1832 4.845714,0.1832 5.12,5.57712 0.274288,5.39432 7.04,4.84576 8.411428,5.02856 1.554286,0 6.4,-4.0228 7.04,-4.11424 0.548576,-0.2744 3.474287,-2.56 9.417143,0.82288 6.034288,3.29136 8.96,2.83424 10.971432,4.29712 2.011427,1.46288 0.731437,4.29712 2.559997,5.30288 1.82857,1.00568 9.69143,-0.2744 11.70286,2.83424 2.01142,3.10856 -8.04572,19.10856 -11.15429,20.84576 -3.108567,1.73712 -4.388567,5.85136 -7.679999,8.41136 -3.291432,2.56 -7.405712,5.85144 -11.611432,8.32 C 80,121.50856 79.451429,125.44 77.714286,126.72 c 28.708574,-6.4 50.102854,-32 50.102854,-62.53712 0,-35.29144 -28.708572,-64 -63.999997,-64 z m 14.994286,59.97712 c -0.822857,0.2744 -2.56,2.01144 -7.131429,-0.7312 C 67.474286,56.50288 64.457143,57.14288 64,56.68568 c 0,0 -0.457144,-1.00568 1.554286,-1.28 4.022857,-0.4568 8.96,3.74864 10.148571,3.74864 1.188572,0 1.737143,-1.18864 3.748572,-0.4568 2.011427,0.7312 0.457144,1.18856 -0.457144,1.28 z M 57.965714,6.4 C 57.50857,6.1256 58.240002,5.6688 58.788571,5.12 59.062859,4.8456 58.971427,4.11432 59.245715,3.84 60.251429,2.83432 64.822857,1.55432 64,4.11432 62.994286,6.58288 58.697143,6.85712 57.965714,6.4 Z m 11.245715,8.13712 C 67.474286,14.35432 63.908571,14.08 64.457143,13.25712 67.2,10.69712 63.634286,9.78288 61.348571,9.78288 59.062857,9.6 58.24,8.32 59.337143,8.04568 c 1.097143,-0.2744 5.577143,0.1832 6.4,0.7312 0.731424,0.5488 4.754286,2.28576 5.028571,3.47432 0.182856,1.18856 0,2.28568 -1.554285,2.28568 z M 82.651432,14.08 c -1.28,0.82288 -7.588575,-3.74856 -8.685718,-4.75432 -5.12,-4.38856 -8.137143,-2.83424 -9.142857,-3.74856 C 63.817143,4.66288 64.091433,3.84 65.828571,2.46856 c 1.737143,-1.37144 6.308572,0.5488 9.142858,0.82288 2.742857,0.2744 6.034283,2.46856 6.034283,5.02856 0.18288,2.28568 3.017144,4.57144 1.737144,5.76 z"
     id="path2"
     inkscape:connector-curvature="0"
     style="fill-rule:evenodd;stroke-width:9.14285755" />
  <path
     style="fill:#3b83c2;fill-opacity:1;stroke-width:0.27118647"
     d="M 59.902726,127.69416 C 51.432018,127.18296 43.079754,124.90768 35.408045,121.02152 22.812538,114.64112 12.83454,104.56416 6.7371148,92.06624 3.7000843,85.8412 2.0061186,80.574 0.86549232,73.80904 0.168882,69.67752 0.168882,58.31928 0.86549232,54.18776 2.7011366,43.3008 6.8243614,33.80528 13.621335,24.812 15.581627,22.21824 21.581966,16.13992 24.259117,14.03592 35.27416,5.37904 49.319698,0.30104 62.372638,0.2564 73.262819,0.2164 83.073832,2.45496 92.236592,7.062 123.78498,22.9244 136.58235,60.76848 121.0734,92.33744 c -7.8878,16.05584 -21.801024,27.84608 -39.016936,33.06344 -1.7612,0.5336 -3.316382,0.9704 -3.45595,0.9704 -0.46548,0 2.574406,-4.64 3.675094,-5.6096 0.59664,-0.5256 2.462352,-1.8516 4.146088,-2.9468 4.66672,-3.03536 9.922216,-7.24552 11.385296,-9.12056 3.060298,-3.92208 3.563468,-4.48952 5.028188,-5.67024 2.89927,-2.3372 6.35663,-7.22136 9.2924,-13.12736 1.97947,-3.98208 2.76122,-6.61936 2.31109,-7.79648 -0.31584,-0.826 -1.55806,-1.69352 -3.01052,-2.10248 -0.522,-0.1472 -2.59661,-0.3952 -4.61017,-0.552 -4.71946,-0.3672 -5.04711,-0.5776 -5.54791,-3.57512 -0.29064,-1.73928 -1.24939,-2.56056 -3.898382,-3.33928 -3.346328,-0.98376 -5.89724,-1.95592 -7.774048,-2.96272 -2.682136,-1.43872 -4.601864,-2.04552 -6.450848,-2.03896 -2.03352,0.0071 -3.058008,0.4384 -6.429508,2.7052 -3.389042,2.2788 -3.771148,2.41008 -6.279384,2.1572 -3.55673,-0.3584 -5.708182,-1.77552 -6.066151,-3.99504 -0.473416,-2.93536 -0.771832,-3.7388 -1.755772,-4.72752 -0.634992,-0.6384 -1.464174,-1.1304 -2.264339,-1.3444 -0.69436,-0.1856 -1.262471,-0.4192 -1.262471,-0.5184 0,-0.0992 0.183048,-0.7 0.406784,-1.33376 0.490224,-1.38952 0.524976,-2.7564 0.08135,-3.2 -0.575328,-0.5752 -1.448353,-0.3512 -3.021443,0.7752 -2.188678,1.56728 -3.827807,2.24176 -4.940713,2.03296 -1.829873,-0.3432 -3.560209,-3.53496 -3.312732,-6.11048 0.331704,-3.45208 4.657318,-6.24704 9.65837,-6.24064 2.581242,0.0033 4.297982,0.7296 6.380887,2.69944 2.41613,2.28512 3.177877,1.73968 2.06953,-1.48176 -0.935228,-2.71832 -0.83046,-3.09424 1.559321,-5.5956 l 2.101695,-2.19984 0.01632,-2.4752 c 0.018,-2.72688 0.3796,-3.76336 1.66595,-4.7752 0.409192,-0.3216 1.088892,-0.6544 1.510451,-0.7384 0.684288,-0.1368 0.747952,-0.2376 0.59372,-0.93984 -0.147216,-0.6704 -0.02112,-0.92536 0.853047,-1.72608 1.180719,-1.08152 1.047523,-1.03384 1.717673,-0.6152 0.42228,0.264 0.703488,0.2256 1.504863,-0.2032 2.135158,-1.1432 2.270982,-2.06152 0.453264,-3.06424 -0.643616,-0.3552 -1.237774,-0.8216 -1.320348,-1.0368 -0.200568,-0.5224 1.106791,-1.85552 2.699705,-2.7524 0.708328,-0.3992 1.28798,-0.81 1.288132,-0.91376 2.72e-4,-0.2624 -4.106998,-3.43624 -6.237008,-4.8192 -1.663919,-1.08032 -1.84935,-1.13696 -3.308521,-1.01048 -1.2273,0.1064 -1.758132,0.016 -2.576271,-0.428 -0.56676,-0.3096 -1.457584,-0.724 -1.979617,-0.9224 -0.889679,-0.3376 -0.827955,-0.3496 0.985052,-0.1928 1.734424,0.1504 1.993518,0.108 2.508474,-0.4064 0.806712,-0.80672 0.729832,-1.83952 -0.201184,-2.70272 -1.394709,-1.29312 -4.771002,-2.98232 -6.596219,-3.30016 -2.409877,-0.42 -4.665446,-0.2656 -4.777969,0.3272 -0.133464,0.7024 0.967294,1.2396 3.150045,1.53736 3.077781,0.42 3.989076,1.30952 2.722505,2.65768 -0.470368,0.5008 -0.518664,0.696 -0.251496,1.01816 0.181872,0.2192 0.596392,0.4504 0.921158,0.5136 l 0.590472,0.1152 -0.600632,0.04 c -0.954452,0.056 -1.146292,0.78 -0.73132,2.7488 0.492352,2.33616 0.487936,4.18528 -0.01096,4.59936 -0.54052,0.4488 -1.293696,0.1648 -3.538447,-1.33448 -1.044068,-0.6968 -2.661018,-1.72584 -3.593221,-2.28592 -2.422858,-1.4556 -2.312515,-1.81128 1.110086,-3.57848 1.638641,-0.84616 1.837369,-1.03192 1.697957,-1.58736 -0.102336,-0.408 0.03184,-0.87032 0.38144,-1.31472 0.29664,-0.3768 0.539344,-0.7424 0.539344,-0.81232 0,-0.072 -1.034785,-0.1808 -2.299523,-0.2472 -2.154635,-0.1128 -2.39355,-0.188 -3.791777,-1.18656 -2.472052,-1.76568 -3.648805,-2.28616 -5.168569,-2.28616 -0.760232,0 -1.609126,0.1656 -1.886439,0.3688 -0.487648,0.3568 -0.484288,0.3968 0.102232,1.2204 0.593632,0.83368 0.594904,0.8516 0.06024,0.8516 -0.300392,0 -1.925654,-0.4904 -3.611685,-1.0896 -6.195698,-2.20224 -6.402965,-2.17136 -12.360392,1.83792 -5.360046,3.60728 -7.2212,5.0536 -7.614849,5.9176 -0.170832,0.3752 -0.3106,0.7272 -0.3106,0.7832 0,0.056 1.067797,-0.4344 2.372881,-1.08984 3.657564,-1.83672 5.465859,-2.02712 5.91166,-0.6224 0.108152,0.3408 0.222464,2.20968 0.254032,4.15312 0.0316,1.94352 0.150088,3.8692 0.263384,4.27936 0.175064,0.6336 0.124488,0.7456 -0.33676,0.7456 -0.600152,0 -0.869421,0.4856 -0.876936,1.58152 -0.0027,0.3976 -0.442464,1.76088 -0.977198,3.02864 -1.512391,3.58576 -2.00089,5.33176 -2.00089,7.15152 0,2.17632 0.436912,3.68112 2.175376,7.49256 1.097969,2.4072 1.454129,3.52072 1.561264,4.88136 0.12112,1.53816 0.295192,1.9872 1.366693,3.52544 1.570151,2.254 1.577847,2.26232 1.903729,2.06096 0.177288,-0.1096 0.08736,-0.81744 -0.253656,-1.99672 -0.924922,-3.19848 -0.91273,-3.2492 0.341568,-1.42016 0.664872,0.96944 1.727555,2.50232 2.361522,3.4064 0.863582,1.23152 1.20362,2.0192 1.355834,3.14088 0.243176,1.792 0.912822,3.01656 2.233074,4.0836 0.994438,0.80368 12.530175,5.34352 15.387499,6.05568 1.660631,0.4136 2.065733,0.7256 3.306641,2.54408 0.921236,1.35 3.538983,3.28032 5.489505,4.048 0.969863,0.3816 1.070617,0.3704 1.851997,-0.2072 0.940754,-0.6952 1.557326,-0.6288 2.96896,0.32 0.85175,0.5728 0.940003,0.7584 1.012928,2.1288 0.07488,1.40704 -0.01168,1.64728 -1.37542,3.81952 -1.832214,2.9184 -2.409288,4.69304 -2.279807,7.01104 0.112616,2.016 0.28652,2.4084 1.99972,4.51176 0.687024,0.84344 1.885777,2.58088 2.663902,3.86096 1.108979,1.8244 1.789036,2.60376 3.1463,3.60568 2.941247,2.17136 3.560141,2.74552 3.940379,3.65552 0.908296,2.17384 0.15656,5.57 -2.472804,11.17104 -0.953183,2.03048 -1.880152,4.24096 -2.059932,4.91216 -0.475688,1.77592 -0.421568,5.61648 0.09632,6.8352 0.517712,1.21832 0.720776,1.12384 -3.602945,1.67616 -4.108784,0.5248 -8.047171,0.6552 -12.203391,0.4048 z M 78.478998,60.36088 c 1.094549,-0.3624 1.898306,-0.7832 1.898306,-0.99296 0,-0.2 -0.475176,-0.5448 -1.055938,-0.7656 -0.951288,-0.3624 -1.17974,-0.356 -2.305085,0.056 l -1.249147,0.46 L 72.194456,57.3 c -3.078341,-1.56664 -3.814327,-1.83368 -5.319111,-1.92944 -1.899583,-0.1208 -2.904822,0.22 -2.904822,0.98512 0,0.3832 0.45268,0.5616 2.308285,0.91224 1.665163,0.3144 3.064453,0.82264 5.022327,1.82448 2.352157,1.20352 4.012751,1.82696 5.008371,1.8804 0.149152,0.008 1.125424,-0.2688 2.169492,-0.6144 z m 4.56749,-46.58032 c 0.22296,-0.3544 0.0336,-0.98784 -0.852288,-2.85184 C 81.5678,9.61056 81.055272,8.2168 81.055272,7.83136 81.055272,6.78632 79.697159,5.1104 78.1869,4.29168 76.784007,3.53088 69.58881,1.89672 67.643909,1.89672 c -1.081587,0 -2.667495,0.80304 -3.121087,1.5804 -0.24552,0.4208 -0.265216,0.42 -0.272864,-0.008 -0.0045,-0.256 -0.272248,-0.6064 -0.594904,-0.7792 -1.248104,-0.668 -4.837069,0.724 -4.837069,1.87648 0,0.252 -0.244064,0.6096 -0.542376,0.796 -0.738544,0.4616 -0.68272,1.10216 0.113408,1.302 0.895102,0.2248 3.376585,-0.3224 4.344686,-0.95704 0.436408,-0.2864 0.949915,-0.80248 1.141128,-1.14704 0.346712,-0.6248 0.347688,-0.6248 0.357264,-0.032 0.01552,0.95304 0.67032,1.35488 2.698256,1.65584 2.590422,0.3848 4.279794,1.21672 7.625407,3.7564 3.914488,2.9716 6.658362,4.49648 7.826378,4.34952 0.20776,-0.024 0.50672,-0.252 0.66432,-0.5024 z"
     id="path817"
     inkscape:connector-curvature="0" />
</svg>
