<?xml version="1.0" encoding="UTF-8" standalone="no"?>
<svg
   xmlns:dc="http://purl.org/dc/elements/1.1/"
   xmlns:cc="http://creativecommons.org/ns#"
   xmlns:rdf="http://www.w3.org/1999/02/22-rdf-syntax-ns#"
   xmlns:svg="http://www.w3.org/2000/svg"
   xmlns="http://www.w3.org/2000/svg"
   xmlns:sodipodi="http://sodipodi.sourceforge.net/DTD/sodipodi-0.dtd"
   xmlns:inkscape="http://www.inkscape.org/namespaces/inkscape"
   width="128"
   height="128"
   viewBox="0 0 128 128"
   version="1.1"
   id="svg4"
   sodipodi:docname="mobile.svg"
   inkscape:version="0.92.4 (unknown)">
  <metadata
     id="metadata10">
    <rdf:RDF>
      <cc:Work
         rdf:about="">
        <dc:format>image/svg+xml</dc:format>
        <dc:type
           rdf:resource="http://purl.org/dc/dcmitype/StillImage" />
        <dc:title></dc:title>
      </cc:Work>
    </rdf:RDF>
  </metadata>
  <defs
     id="defs8" />
  <sodipodi:namedview
     pagecolor="#ffffff"
     bordercolor="#666666"
     borderopacity="1"
     objecttolerance="10"
     gridtolerance="10"
     guidetolerance="10"
     inkscape:pageopacity="0"
     inkscape:pageshadow="2"
     inkscape:window-width="1920"
     inkscape:window-height="1171"
     id="namedview6"
     showgrid="false"
     inkscape:zoom="5.2149125"
     inkscape:cx="27.419423"
     inkscape:cy="64.776424"
     inkscape:window-x="3840"
     inkscape:window-y="0"
     inkscape:window-maximized="1"
     inkscape:current-layer="svg4" />
  <path
     d="M 96,0 H 32 c -4.4,0 -8,3.6 -8,8 v 112 c 0,4.4 3.6,8 8,8 h 64 c 4.4,0 8,-3.6 8,-8 V 8 C 104,3.6 100.4,0 96,0 Z M 64,122.4 c -5.76,0 -10.4,-4.64 -10.4,-10.4 0,-5.76 4.64,-10.4 10.4,-10.4 5.76,0 10.4,4.64 10.4,10.4 0,5.76 -4.64,10.4 -10.4,10.4 z M 96,96 H 32 V 16 h 64 z"
     id="path2"
     inkscape:connector-curvature="0"
     style="fill-rule:evenodd;stroke-width:8" />
  <path
     style="fill:#3b83c2;fill-opacity:1;stroke-width:0.27118647"
     d="m 29.575294,127.42624 c -2.73212,-0.94944 -4.670316,-3.11168 -5.234621,-5.83968 -0.198584,-0.96 -0.265264,-19.04456 -0.215584,-58.47464 l 0.07192,-57.08472 0.63892,-1.22032 c 0.818125,-1.56264 2.319617,-3.14016 3.700058,-3.88736 l 1.084746,-0.5872 34.033313,-0.072 34.033317,-0.072 1.678752,0.82648 c 1.897035,0.93392 2.867575,1.9468 3.791955,3.95736 l 0.63712,1.38568 -0.0704,58.00416 -0.0704,58.00408 -0.58728,1.09696 c -0.71696,1.33904 -2.67352,3.1844 -4.072355,3.84096 -0.975328,0.4576 -2.974032,0.4896 -34.526781,0.5472 -31.612783,0.056 -33.570136,0.032 -34.892893,-0.4256 z m 37.643988,-5.46808 c 4.629638,-1.46024 7.574793,-5.85104 7.204932,-10.74144 -0.366144,-4.84128 -4.129803,-8.92384 -8.790511,-9.53544 -5.962209,-0.7824 -11.218373,3.05936 -11.992705,8.76544 -1.054134,7.768 6.131922,13.86016 13.578284,11.51144 z M 96.197,56.06112 V 15.92552 H 64.061408 31.925814 v 40.1356 40.1356 H 64.061408 96.197 Z"
     id="path817"
     inkscape:connector-curvature="0" />
</svg>
